('/home/felixq/PycharmProjects/Cephalon-6015/build/main/PKG-00.pkg',
 {'BINARY': 1,
  'DATA': 1,
  'EXECUTABLE': 1,
  'EXTENSION': 1,
  'PYMODULE': 1,
  'PYSOURCE': 1,
  'PYZ': 0},
 [('PYZ-00.pyz',
   '/home/felixq/PycharmProjects/Cephalon-6015/build/main/PYZ-00.pyz',
   'PYZ'),
  ('_struct',
   '/usr/lib/python3.8/lib-dynload/_struct.cpython-38-x86_64-linux-gnu.so',
   'EXTENSION'),
  ('zlib',
   '/usr/lib/python3.8/lib-dynload/zlib.cpython-38-x86_64-linux-gnu.so',
   'EXTENSION'),
  ('struct',
   '/home/felixq/PycharmProjects/Cephalon-6015/build/main/localpycos/struct.pyo',
   'PYMODULE'),
  ('pyimod01_os_path',
   '/home/felixq/PycharmProjects/Cephalon-6015/venv_python/lib/python3.8/site-packages/PyInstaller/loader/pyimod01_os_path.pyc',
   'PYMODULE'),
  ('pyimod02_archive',
   '/home/felixq/PycharmProjects/Cephalon-6015/venv_python/lib/python3.8/site-packages/PyInstaller/loader/pyimod02_archive.pyc',
   'PYMODULE'),
  ('pyimod03_importers',
   '/home/felixq/PycharmProjects/Cephalon-6015/venv_python/lib/python3.8/site-packages/PyInstaller/loader/pyimod03_importers.pyc',
   'PYMODULE'),
  ('pyiboot01_bootstrap',
   '/home/felixq/PycharmProjects/Cephalon-6015/venv_python/lib/python3.8/site-packages/PyInstaller/loader/pyiboot01_bootstrap.py',
   'PYSOURCE'),
  ('pyi_rth_multiprocessing',
   '/home/felixq/PycharmProjects/Cephalon-6015/venv_python/lib/python3.8/site-packages/PyInstaller/loader/rthooks/pyi_rth_multiprocessing.py',
   'PYSOURCE'),
  ('pyi_rth_glib',
   '/home/felixq/PycharmProjects/Cephalon-6015/venv_python/lib/python3.8/site-packages/PyInstaller/loader/rthooks/pyi_rth_glib.py',
   'PYSOURCE'),
  ('pyi_rth_gio',
   '/home/felixq/PycharmProjects/Cephalon-6015/venv_python/lib/python3.8/site-packages/PyInstaller/loader/rthooks/pyi_rth_gio.py',
   'PYSOURCE'),
  ('pyi_rth_gtk',
   '/home/felixq/PycharmProjects/Cephalon-6015/venv_python/lib/python3.8/site-packages/PyInstaller/loader/rthooks/pyi_rth_gtk.py',
   'PYSOURCE'),
  ('pyi_rth_gdkpixbuf',
   '/home/felixq/PycharmProjects/Cephalon-6015/venv_python/lib/python3.8/site-packages/PyInstaller/loader/rthooks/pyi_rth_gdkpixbuf.py',
   'PYSOURCE'),
  ('pyi_rth_certifi',
   '/home/felixq/PycharmProjects/Cephalon-6015/venv_python/lib/python3.8/site-packages/PyInstaller/loader/rthooks/pyi_rth_certifi.py',
   'PYSOURCE'),
  ('pyi_rth_gi',
   '/home/felixq/PycharmProjects/Cephalon-6015/venv_python/lib/python3.8/site-packages/PyInstaller/loader/rthooks/pyi_rth_gi.py',
   'PYSOURCE'),
  ('main', '/home/felixq/PycharmProjects/Cephalon-6015/main.py', 'PYSOURCE')],
 True,
 False,
 False,
 [])
