('/home/felixq/PycharmProjects/Cephalon-6015/build/main/PYZ-00.pyz',
 [('os', '/usr/lib/python3.8/os.py', 'PYMODULE'),
  ('subprocess', '/usr/lib/python3.8/subprocess.py', 'PYMODULE'),
  ('selectors', '/usr/lib/python3.8/selectors.py', 'PYMODULE'),
  ('contextlib', '/usr/lib/python3.8/contextlib.py', 'PYMODULE'),
  ('signal', '/usr/lib/python3.8/signal.py', 'PYMODULE'),
  ('_strptime', '/usr/lib/python3.8/_strptime.py', 'PYMODULE'),
  ('datetime', '/usr/lib/python3.8/datetime.py', 'PYMODULE'),
  ('calendar', '/usr/lib/python3.8/calendar.py', 'PYMODULE'),
  ('argparse', '/usr/lib/python3.8/argparse.py', 'PYMODULE'),
  ('textwrap', '/usr/lib/python3.8/textwrap.py', 'PYMODULE'),
  ('copy', '/usr/lib/python3.8/copy.py', 'PYMODULE'),
  ('gettext', '/usr/lib/python3.8/gettext.py', 'PYMODULE'),
  ('struct', '/usr/lib/python3.8/struct.py', 'PYMODULE'),
  ('shutil', '/usr/lib/python3.8/shutil.py', 'PYMODULE'),
  ('zipfile', '/usr/lib/python3.8/zipfile.py', 'PYMODULE'),
  ('py_compile', '/usr/lib/python3.8/py_compile.py', 'PYMODULE'),
  ('importlib.machinery',
   '/usr/lib/python3.8/importlib/machinery.py',
   'PYMODULE'),
  ('importlib', '/usr/lib/python3.8/importlib/__init__.py', 'PYMODULE'),
  ('importlib._bootstrap',
   '/usr/lib/python3.8/importlib/_bootstrap.py',
   'PYMODULE'),
  ('importlib._bootstrap_external',
   '/usr/lib/python3.8/importlib/_bootstrap_external.py',
   'PYMODULE'),
  ('importlib.metadata',
   '/usr/lib/python3.8/importlib/metadata.py',
   'PYMODULE'),
  ('importlib.abc', '/usr/lib/python3.8/importlib/abc.py', 'PYMODULE'),
  ('configparser', '/usr/lib/python3.8/configparser.py', 'PYMODULE'),
  ('pathlib', '/usr/lib/python3.8/pathlib.py', 'PYMODULE'),
  ('urllib.parse', '/usr/lib/python3.8/urllib/parse.py', 'PYMODULE'),
  ('urllib', '/usr/lib/python3.8/urllib/__init__.py', 'PYMODULE'),
  ('email', '/usr/lib/python3.8/email/__init__.py', 'PYMODULE'),
  ('email.parser', '/usr/lib/python3.8/email/parser.py', 'PYMODULE'),
  ('email._policybase', '/usr/lib/python3.8/email/_policybase.py', 'PYMODULE'),
  ('email.utils', '/usr/lib/python3.8/email/utils.py', 'PYMODULE'),
  ('email._parseaddr', '/usr/lib/python3.8/email/_parseaddr.py', 'PYMODULE'),
  ('socket', '/usr/lib/python3.8/socket.py', 'PYMODULE'),
  ('random', '/usr/lib/python3.8/random.py', 'PYMODULE'),
  ('hashlib', '/usr/lib/python3.8/hashlib.py', 'PYMODULE'),
  ('logging', '/usr/lib/python3.8/logging/__init__.py', 'PYMODULE'),
  ('pickle', '/usr/lib/python3.8/pickle.py', 'PYMODULE'),
  ('pprint', '/usr/lib/python3.8/pprint.py', 'PYMODULE'),
  ('doctest', '/usr/lib/python3.8/doctest.py', 'PYMODULE'),
  ('unittest', '/usr/lib/python3.8/unittest/__init__.py', 'PYMODULE'),
  ('unittest.signals', '/usr/lib/python3.8/unittest/signals.py', 'PYMODULE'),
  ('unittest.main', '/usr/lib/python3.8/unittest/main.py', 'PYMODULE'),
  ('unittest.runner', '/usr/lib/python3.8/unittest/runner.py', 'PYMODULE'),
  ('unittest.loader', '/usr/lib/python3.8/unittest/loader.py', 'PYMODULE'),
  ('unittest.suite', '/usr/lib/python3.8/unittest/suite.py', 'PYMODULE'),
  ('unittest.case', '/usr/lib/python3.8/unittest/case.py', 'PYMODULE'),
  ('unittest.async_case',
   '/usr/lib/python3.8/unittest/async_case.py',
   'PYMODULE'),
  ('asyncio', '/usr/lib/python3.8/asyncio/__init__.py', 'PYMODULE'),
  ('asyncio.unix_events',
   '/usr/lib/python3.8/asyncio/unix_events.py',
   'PYMODULE'),
  ('asyncio.log', '/usr/lib/python3.8/asyncio/log.py', 'PYMODULE'),
  ('asyncio.windows_events',
   '/usr/lib/python3.8/asyncio/windows_events.py',
   'PYMODULE'),
  ('asyncio.windows_utils',
   '/usr/lib/python3.8/asyncio/windows_utils.py',
   'PYMODULE'),
  ('tempfile', '/usr/lib/python3.8/tempfile.py', 'PYMODULE'),
  ('asyncio.selector_events',
   '/usr/lib/python3.8/asyncio/selector_events.py',
   'PYMODULE'),
  ('ssl', '/usr/lib/python3.8/ssl.py', 'PYMODULE'),
  ('base64', '/usr/lib/python3.8/base64.py', 'PYMODULE'),
  ('getopt', '/usr/lib/python3.8/getopt.py', 'PYMODULE'),
  ('asyncio.proactor_events',
   '/usr/lib/python3.8/asyncio/proactor_events.py',
   'PYMODULE'),
  ('asyncio.base_subprocess',
   '/usr/lib/python3.8/asyncio/base_subprocess.py',
   'PYMODULE'),
  ('asyncio.subprocess',
   '/usr/lib/python3.8/asyncio/subprocess.py',
   'PYMODULE'),
  ('asyncio.streams', '/usr/lib/python3.8/asyncio/streams.py', 'PYMODULE'),
  ('asyncio.queues', '/usr/lib/python3.8/asyncio/queues.py', 'PYMODULE'),
  ('asyncio.runners', '/usr/lib/python3.8/asyncio/runners.py', 'PYMODULE'),
  ('asyncio.trsock', '/usr/lib/python3.8/asyncio/trsock.py', 'PYMODULE'),
  ('asyncio.staggered', '/usr/lib/python3.8/asyncio/staggered.py', 'PYMODULE'),
  ('typing', '/usr/lib/python3.8/typing.py', 'PYMODULE'),
  ('asyncio.tasks', '/usr/lib/python3.8/asyncio/tasks.py', 'PYMODULE'),
  ('contextvars', '/usr/lib/python3.8/contextvars.py', 'PYMODULE'),
  ('concurrent.futures',
   '/usr/lib/python3.8/concurrent/futures/__init__.py',
   'PYMODULE'),
  ('concurrent.futures.thread',
   '/usr/lib/python3.8/concurrent/futures/thread.py',
   'PYMODULE'),
  ('queue', '/usr/lib/python3.8/queue.py', 'PYMODULE'),
  ('concurrent.futures.process',
   '/usr/lib/python3.8/concurrent/futures/process.py',
   'PYMODULE'),
  ('multiprocessing.queues',
   '/usr/lib/python3.8/multiprocessing/queues.py',
   'PYMODULE'),
  ('multiprocessing.synchronize',
   '/usr/lib/python3.8/multiprocessing/synchronize.py',
   'PYMODULE'),
  ('multiprocessing.heap',
   '/usr/lib/python3.8/multiprocessing/heap.py',
   'PYMODULE'),
  ('multiprocessing.resource_tracker',
   '/usr/lib/python3.8/multiprocessing/resource_tracker.py',
   'PYMODULE'),
  ('multiprocessing.spawn',
   '/usr/lib/python3.8/multiprocessing/spawn.py',
   'PYMODULE'),
  ('runpy', '/usr/lib/python3.8/runpy.py', 'PYMODULE'),
  ('pkgutil', '/usr/lib/python3.8/pkgutil.py', 'PYMODULE'),
  ('zipimport', '/usr/lib/python3.8/zipimport.py', 'PYMODULE'),
  ('multiprocessing.process',
   '/usr/lib/python3.8/multiprocessing/process.py',
   'PYMODULE'),
  ('multiprocessing.util',
   '/usr/lib/python3.8/multiprocessing/util.py',
   'PYMODULE'),
  ('multiprocessing.forkserver',
   '/usr/lib/python3.8/multiprocessing/forkserver.py',
   'PYMODULE'),
  ('multiprocessing.context',
   '/usr/lib/python3.8/multiprocessing/context.py',
   'PYMODULE'),
  ('multiprocessing.popen_spawn_win32',
   '/usr/lib/python3.8/multiprocessing/popen_spawn_win32.py',
   'PYMODULE'),
  ('multiprocessing.popen_forkserver',
   '/usr/lib/python3.8/multiprocessing/popen_forkserver.py',
   'PYMODULE'),
  ('multiprocessing.popen_spawn_posix',
   '/usr/lib/python3.8/multiprocessing/popen_spawn_posix.py',
   'PYMODULE'),
  ('multiprocessing.popen_fork',
   '/usr/lib/python3.8/multiprocessing/popen_fork.py',
   'PYMODULE'),
  ('multiprocessing.sharedctypes',
   '/usr/lib/python3.8/multiprocessing/sharedctypes.py',
   'PYMODULE'),
  ('ctypes', '/usr/lib/python3.8/ctypes/__init__.py', 'PYMODULE'),
  ('ctypes._endian', '/usr/lib/python3.8/ctypes/_endian.py', 'PYMODULE'),
  ('multiprocessing.pool',
   '/usr/lib/python3.8/multiprocessing/pool.py',
   'PYMODULE'),
  ('multiprocessing.dummy',
   '/usr/lib/python3.8/multiprocessing/dummy/__init__.py',
   'PYMODULE'),
  ('multiprocessing.dummy.connection',
   '/usr/lib/python3.8/multiprocessing/dummy/connection.py',
   'PYMODULE'),
  ('multiprocessing.managers',
   '/usr/lib/python3.8/multiprocessing/managers.py',
   'PYMODULE'),
  ('multiprocessing.shared_memory',
   '/usr/lib/python3.8/multiprocessing/shared_memory.py',
   'PYMODULE'),
  ('secrets', '/usr/lib/python3.8/secrets.py', 'PYMODULE'),
  ('hmac', '/usr/lib/python3.8/hmac.py', 'PYMODULE'),
  ('multiprocessing.reduction',
   '/usr/lib/python3.8/multiprocessing/reduction.py',
   'PYMODULE'),
  ('multiprocessing.resource_sharer',
   '/usr/lib/python3.8/multiprocessing/resource_sharer.py',
   'PYMODULE'),
  ('multiprocessing.connection',
   '/usr/lib/python3.8/multiprocessing/connection.py',
   'PYMODULE'),
  ('xmlrpc.client', '/usr/lib/python3.8/xmlrpc/client.py', 'PYMODULE'),
  ('xmlrpc', '/usr/lib/python3.8/xmlrpc/__init__.py', 'PYMODULE'),
  ('gzip', '/usr/lib/python3.8/gzip.py', 'PYMODULE'),
  ('_compression', '/usr/lib/python3.8/_compression.py', 'PYMODULE'),
  ('xml.parsers.expat', '/usr/lib/python3.8/xml/parsers/expat.py', 'PYMODULE'),
  ('xml.parsers', '/usr/lib/python3.8/xml/parsers/__init__.py', 'PYMODULE'),
  ('xml', '/usr/lib/python3.8/xml/__init__.py', 'PYMODULE'),
  ('xml.sax.expatreader',
   '/usr/lib/python3.8/xml/sax/expatreader.py',
   'PYMODULE'),
  ('xml.sax.saxutils', '/usr/lib/python3.8/xml/sax/saxutils.py', 'PYMODULE'),
  ('urllib.request', '/usr/lib/python3.8/urllib/request.py', 'PYMODULE'),
  ('getpass', '/usr/lib/python3.8/getpass.py', 'PYMODULE'),
  ('nturl2path', '/usr/lib/python3.8/nturl2path.py', 'PYMODULE'),
  ('ftplib', '/usr/lib/python3.8/ftplib.py', 'PYMODULE'),
  ('netrc', '/usr/lib/python3.8/netrc.py', 'PYMODULE'),
  ('shlex', '/usr/lib/python3.8/shlex.py', 'PYMODULE'),
  ('mimetypes', '/usr/lib/python3.8/mimetypes.py', 'PYMODULE'),
  ('http.cookiejar', '/usr/lib/python3.8/http/cookiejar.py', 'PYMODULE'),
  ('http', '/usr/lib/python3.8/http/__init__.py', 'PYMODULE'),
  ('urllib.response', '/usr/lib/python3.8/urllib/response.py', 'PYMODULE'),
  ('urllib.error', '/usr/lib/python3.8/urllib/error.py', 'PYMODULE'),
  ('xml.sax', '/usr/lib/python3.8/xml/sax/__init__.py', 'PYMODULE'),
  ('xml.sax.handler', '/usr/lib/python3.8/xml/sax/handler.py', 'PYMODULE'),
  ('xml.sax._exceptions',
   '/usr/lib/python3.8/xml/sax/_exceptions.py',
   'PYMODULE'),
  ('xml.sax.xmlreader', '/usr/lib/python3.8/xml/sax/xmlreader.py', 'PYMODULE'),
  ('http.client', '/usr/lib/python3.8/http/client.py', 'PYMODULE'),
  ('email.message', '/usr/lib/python3.8/email/message.py', 'PYMODULE'),
  ('email.policy', '/usr/lib/python3.8/email/policy.py', 'PYMODULE'),
  ('email.contentmanager',
   '/usr/lib/python3.8/email/contentmanager.py',
   'PYMODULE'),
  ('email.quoprimime', '/usr/lib/python3.8/email/quoprimime.py', 'PYMODULE'),
  ('email.headerregistry',
   '/usr/lib/python3.8/email/headerregistry.py',
   'PYMODULE'),
  ('email.iterators', '/usr/lib/python3.8/email/iterators.py', 'PYMODULE'),
  ('email.generator', '/usr/lib/python3.8/email/generator.py', 'PYMODULE'),
  ('email._encoded_words',
   '/usr/lib/python3.8/email/_encoded_words.py',
   'PYMODULE'),
  ('quopri', '/usr/lib/python3.8/quopri.py', 'PYMODULE'),
  ('uu', '/usr/lib/python3.8/uu.py', 'PYMODULE'),
  ('optparse', '/usr/lib/python3.8/optparse.py', 'PYMODULE'),
  ('decimal', '/usr/lib/python3.8/decimal.py', 'PYMODULE'),
  ('_pydecimal', '/usr/lib/python3.8/_pydecimal.py', 'PYMODULE'),
  ('numbers', '/usr/lib/python3.8/numbers.py', 'PYMODULE'),
  ('multiprocessing',
   '/usr/lib/python3.8/multiprocessing/__init__.py',
   'PYMODULE'),
  ('concurrent.futures._base',
   '/usr/lib/python3.8/concurrent/futures/_base.py',
   'PYMODULE'),
  ('concurrent', '/usr/lib/python3.8/concurrent/__init__.py', 'PYMODULE'),
  ('asyncio.base_tasks',
   '/usr/lib/python3.8/asyncio/base_tasks.py',
   'PYMODULE'),
  ('asyncio.locks', '/usr/lib/python3.8/asyncio/locks.py', 'PYMODULE'),
  ('asyncio.sslproto', '/usr/lib/python3.8/asyncio/sslproto.py', 'PYMODULE'),
  ('asyncio.transports',
   '/usr/lib/python3.8/asyncio/transports.py',
   'PYMODULE'),
  ('asyncio.base_events',
   '/usr/lib/python3.8/asyncio/base_events.py',
   'PYMODULE'),
  ('asyncio.protocols', '/usr/lib/python3.8/asyncio/protocols.py', 'PYMODULE'),
  ('asyncio.futures', '/usr/lib/python3.8/asyncio/futures.py', 'PYMODULE'),
  ('asyncio.events', '/usr/lib/python3.8/asyncio/events.py', 'PYMODULE'),
  ('asyncio.exceptions',
   '/usr/lib/python3.8/asyncio/exceptions.py',
   'PYMODULE'),
  ('asyncio.coroutines',
   '/usr/lib/python3.8/asyncio/coroutines.py',
   'PYMODULE'),
  ('asyncio.base_futures',
   '/usr/lib/python3.8/asyncio/base_futures.py',
   'PYMODULE'),
  ('asyncio.format_helpers',
   '/usr/lib/python3.8/asyncio/format_helpers.py',
   'PYMODULE'),
  ('asyncio.constants', '/usr/lib/python3.8/asyncio/constants.py', 'PYMODULE'),
  ('unittest.result', '/usr/lib/python3.8/unittest/result.py', 'PYMODULE'),
  ('unittest.util', '/usr/lib/python3.8/unittest/util.py', 'PYMODULE'),
  ('pdb', '/usr/lib/python3.8/pdb.py', 'PYMODULE'),
  ('pydoc', '/usr/lib/python3.8/pydoc.py', 'PYMODULE'),
  ('webbrowser', '/usr/lib/python3.8/webbrowser.py', 'PYMODULE'),
  ('http.server', '/usr/lib/python3.8/http/server.py', 'PYMODULE'),
  ('socketserver', '/usr/lib/python3.8/socketserver.py', 'PYMODULE'),
  ('html', '/usr/lib/python3.8/html/__init__.py', 'PYMODULE'),
  ('html.entities', '/usr/lib/python3.8/html/entities.py', 'PYMODULE'),
  ('pydoc_data.topics', '/usr/lib/python3.8/pydoc_data/topics.py', 'PYMODULE'),
  ('pydoc_data', '/usr/lib/python3.8/pydoc_data/__init__.py', 'PYMODULE'),
  ('tty', '/usr/lib/python3.8/tty.py', 'PYMODULE'),
  ('sysconfig', '/usr/lib/python3.8/sysconfig.py', 'PYMODULE'),
  ('_sysconfigdata__linux_x86_64-linux-gnu',
   '/usr/lib/python3.8/_sysconfigdata__linux_x86_64-linux-gnu.py',
   'PYMODULE'),
  ('_osx_support', '/usr/lib/python3.8/_osx_support.py', 'PYMODULE'),
  ('distutils.log', '/usr/lib/python3.8/distutils/log.py', 'PYMODULE'),
  ('distutils', '/usr/lib/python3.8/distutils/__init__.py', 'PYMODULE'),
  ('platform', '/usr/lib/python3.8/platform.py', 'PYMODULE'),
  ('plistlib', '/usr/lib/python3.8/plistlib.py', 'PYMODULE'),
  ('glob', '/usr/lib/python3.8/glob.py', 'PYMODULE'),
  ('code', '/usr/lib/python3.8/code.py', 'PYMODULE'),
  ('codeop', '/usr/lib/python3.8/codeop.py', 'PYMODULE'),
  ('dis', '/usr/lib/python3.8/dis.py', 'PYMODULE'),
  ('opcode', '/usr/lib/python3.8/opcode.py', 'PYMODULE'),
  ('bdb', '/usr/lib/python3.8/bdb.py', 'PYMODULE'),
  ('cmd', '/usr/lib/python3.8/cmd.py', 'PYMODULE'),
  ('inspect', '/usr/lib/python3.8/inspect.py', 'PYMODULE'),
  ('ast', '/usr/lib/python3.8/ast.py', 'PYMODULE'),
  ('token', '/usr/lib/python3.8/token.py', 'PYMODULE'),
  ('difflib', '/usr/lib/python3.8/difflib.py', 'PYMODULE'),
  ('__future__', '/usr/lib/python3.8/__future__.py', 'PYMODULE'),
  ('_compat_pickle', '/usr/lib/python3.8/_compat_pickle.py', 'PYMODULE'),
  ('string', '/usr/lib/python3.8/string.py', 'PYMODULE'),
  ('bisect', '/usr/lib/python3.8/bisect.py', 'PYMODULE'),
  ('email.feedparser', '/usr/lib/python3.8/email/feedparser.py', 'PYMODULE'),
  ('email._header_value_parser',
   '/usr/lib/python3.8/email/_header_value_parser.py',
   'PYMODULE'),
  ('email.header', '/usr/lib/python3.8/email/header.py', 'PYMODULE'),
  ('email.base64mime', '/usr/lib/python3.8/email/base64mime.py', 'PYMODULE'),
  ('email.charset', '/usr/lib/python3.8/email/charset.py', 'PYMODULE'),
  ('email.encoders', '/usr/lib/python3.8/email/encoders.py', 'PYMODULE'),
  ('email.errors', '/usr/lib/python3.8/email/errors.py', 'PYMODULE'),
  ('csv', '/usr/lib/python3.8/csv.py', 'PYMODULE'),
  ('tokenize', '/usr/lib/python3.8/tokenize.py', 'PYMODULE'),
  ('importlib.util', '/usr/lib/python3.8/importlib/util.py', 'PYMODULE'),
  ('tarfile', '/usr/lib/python3.8/tarfile.py', 'PYMODULE'),
  ('lzma', '/usr/lib/python3.8/lzma.py', 'PYMODULE'),
  ('bz2', '/usr/lib/python3.8/bz2.py', 'PYMODULE'),
  ('fnmatch', '/usr/lib/python3.8/fnmatch.py', 'PYMODULE'),
  ('ntpath', '/usr/lib/python3.8/ntpath.py', 'PYMODULE'),
  ('genericpath', '/usr/lib/python3.8/genericpath.py', 'PYMODULE'),
  ('posixpath', '/usr/lib/python3.8/posixpath.py', 'PYMODULE'),
  ('stat', '/usr/lib/python3.8/stat.py', 'PYMODULE'),
  ('_py_abc', '/usr/lib/python3.8/_py_abc.py', 'PYMODULE'),
  ('stringprep', '/usr/lib/python3.8/stringprep.py', 'PYMODULE'),
  ('tracemalloc', '/usr/lib/python3.8/tracemalloc.py', 'PYMODULE'),
  ('gi.overrides',
   '/home/felixq/PycharmProjects/Cephalon-6015/venv_python/lib/python3.8/site-packages/gi/overrides/__init__.py',
   'PYMODULE'),
  ('gi.importer',
   '/home/felixq/PycharmProjects/Cephalon-6015/venv_python/lib/python3.8/site-packages/gi/importer.py',
   'PYMODULE'),
  ('gi.module',
   '/home/felixq/PycharmProjects/Cephalon-6015/venv_python/lib/python3.8/site-packages/gi/module.py',
   'PYMODULE'),
  ('gi.types',
   '/home/felixq/PycharmProjects/Cephalon-6015/venv_python/lib/python3.8/site-packages/gi/types.py',
   'PYMODULE'),
  ('gi._signalhelper',
   '/home/felixq/PycharmProjects/Cephalon-6015/venv_python/lib/python3.8/site-packages/gi/_signalhelper.py',
   'PYMODULE'),
  ('gi._propertyhelper',
   '/home/felixq/PycharmProjects/Cephalon-6015/venv_python/lib/python3.8/site-packages/gi/_propertyhelper.py',
   'PYMODULE'),
  ('gi._compat',
   '/home/felixq/PycharmProjects/Cephalon-6015/venv_python/lib/python3.8/site-packages/gi/_compat.py',
   'PYMODULE'),
  ('gi.docstring',
   '/home/felixq/PycharmProjects/Cephalon-6015/venv_python/lib/python3.8/site-packages/gi/docstring.py',
   'PYMODULE'),
  ('gi._constants',
   '/home/felixq/PycharmProjects/Cephalon-6015/venv_python/lib/python3.8/site-packages/gi/_constants.py',
   'PYMODULE'),
  ('gi.overrides.GLib',
   '/home/felixq/PycharmProjects/Cephalon-6015/venv_python/lib/python3.8/site-packages/gi/overrides/GLib.py',
   'PYMODULE'),
  ('gi._error',
   '/home/felixq/PycharmProjects/Cephalon-6015/venv_python/lib/python3.8/site-packages/gi/_error.py',
   'PYMODULE'),
  ('gi._option',
   '/home/felixq/PycharmProjects/Cephalon-6015/venv_python/lib/python3.8/site-packages/gi/_option.py',
   'PYMODULE'),
  ('gi._ossighelper',
   '/home/felixq/PycharmProjects/Cephalon-6015/venv_python/lib/python3.8/site-packages/gi/_ossighelper.py',
   'PYMODULE'),
  ('gi.overrides.Gio',
   '/home/felixq/PycharmProjects/Cephalon-6015/venv_python/lib/python3.8/site-packages/gi/overrides/Gio.py',
   'PYMODULE'),
  ('gi.overrides.GObject',
   '/home/felixq/PycharmProjects/Cephalon-6015/venv_python/lib/python3.8/site-packages/gi/overrides/GObject.py',
   'PYMODULE'),
  ('gi.overrides.GdkPixbuf',
   '/home/felixq/PycharmProjects/Cephalon-6015/venv_python/lib/python3.8/site-packages/gi/overrides/GdkPixbuf.py',
   'PYMODULE'),
  ('gi.overrides.Pango',
   '/home/felixq/PycharmProjects/Cephalon-6015/venv_python/lib/python3.8/site-packages/gi/overrides/Pango.py',
   'PYMODULE'),
  ('gi.overrides.Gdk',
   '/home/felixq/PycharmProjects/Cephalon-6015/venv_python/lib/python3.8/site-packages/gi/overrides/Gdk.py',
   'PYMODULE'),
  ('gi.overrides.Gtk',
   '/home/felixq/PycharmProjects/Cephalon-6015/venv_python/lib/python3.8/site-packages/gi/overrides/Gtk.py',
   'PYMODULE'),
  ('gi._gtktemplate',
   '/home/felixq/PycharmProjects/Cephalon-6015/venv_python/lib/python3.8/site-packages/gi/_gtktemplate.py',
   'PYMODULE'),
  ('gi.repository',
   '/home/felixq/PycharmProjects/Cephalon-6015/venv_python/lib/python3.8/site-packages/gi/repository/__init__.py',
   'PYMODULE'),
  ('progress_dialog',
   '/home/felixq/PycharmProjects/Cephalon-6015/progress_dialog.py',
   'PYMODULE'),
  ('settings',
   '/home/felixq/PycharmProjects/Cephalon-6015/settings.py',
   'PYMODULE'),
  ('search',
   '/home/felixq/PycharmProjects/Cephalon-6015/search.py',
   'PYMODULE'),
  ('apirequests',
   '/home/felixq/PycharmProjects/Cephalon-6015/apirequests.py',
   'PYMODULE'),
  ('result_uis.all_result',
   '/home/felixq/PycharmProjects/Cephalon-6015/result_uis/all_result.py',
   'PYMODULE'),
  ('result_uis.weapon',
   '/home/felixq/PycharmProjects/Cephalon-6015/result_uis/weapon.py',
   'PYMODULE'),
  ('result_uis.warframe',
   '/home/felixq/PycharmProjects/Cephalon-6015/result_uis/warframe.py',
   'PYMODULE'),
  ('result_uis.arcane',
   '/home/felixq/PycharmProjects/Cephalon-6015/result_uis/arcane.py',
   'PYMODULE'),
  ('result_uis',
   '/home/felixq/PycharmProjects/Cephalon-6015/result_uis/__init__.py',
   'PYMODULE'),
  ('resultview',
   '/home/felixq/PycharmProjects/Cephalon-6015/resultview.py',
   'PYMODULE'),
  ('json', '/usr/lib/python3.8/json/__init__.py', 'PYMODULE'),
  ('json.encoder', '/usr/lib/python3.8/json/encoder.py', 'PYMODULE'),
  ('json.decoder', '/usr/lib/python3.8/json/decoder.py', 'PYMODULE'),
  ('json.scanner', '/usr/lib/python3.8/json/scanner.py', 'PYMODULE'),
  ('requests',
   '/home/felixq/PycharmProjects/Cephalon-6015/venv_python/lib/python3.8/site-packages/requests/__init__.py',
   'PYMODULE'),
  ('requests.status_codes',
   '/home/felixq/PycharmProjects/Cephalon-6015/venv_python/lib/python3.8/site-packages/requests/status_codes.py',
   'PYMODULE'),
  ('requests.structures',
   '/home/felixq/PycharmProjects/Cephalon-6015/venv_python/lib/python3.8/site-packages/requests/structures.py',
   'PYMODULE'),
  ('requests.compat',
   '/home/felixq/PycharmProjects/Cephalon-6015/venv_python/lib/python3.8/site-packages/requests/compat.py',
   'PYMODULE'),
  ('http.cookies', '/usr/lib/python3.8/http/cookies.py', 'PYMODULE'),
  ('requests.api',
   '/home/felixq/PycharmProjects/Cephalon-6015/venv_python/lib/python3.8/site-packages/requests/api.py',
   'PYMODULE'),
  ('requests.sessions',
   '/home/felixq/PycharmProjects/Cephalon-6015/venv_python/lib/python3.8/site-packages/requests/sessions.py',
   'PYMODULE'),
  ('requests.adapters',
   '/home/felixq/PycharmProjects/Cephalon-6015/venv_python/lib/python3.8/site-packages/requests/adapters.py',
   'PYMODULE'),
  ('urllib3.contrib.socks',
   '/home/felixq/PycharmProjects/Cephalon-6015/venv_python/lib/python3.8/site-packages/urllib3/contrib/socks.py',
   'PYMODULE'),
  ('urllib3.util.url',
   '/home/felixq/PycharmProjects/Cephalon-6015/venv_python/lib/python3.8/site-packages/urllib3/util/url.py',
   'PYMODULE'),
  ('idna',
   '/home/felixq/PycharmProjects/Cephalon-6015/venv_python/lib/python3.8/site-packages/idna/__init__.py',
   'PYMODULE'),
  ('idna.core',
   '/home/felixq/PycharmProjects/Cephalon-6015/venv_python/lib/python3.8/site-packages/idna/core.py',
   'PYMODULE'),
  ('idna.uts46data',
   '/home/felixq/PycharmProjects/Cephalon-6015/venv_python/lib/python3.8/site-packages/idna/uts46data.py',
   'PYMODULE'),
  ('idna.intranges',
   '/home/felixq/PycharmProjects/Cephalon-6015/venv_python/lib/python3.8/site-packages/idna/intranges.py',
   'PYMODULE'),
  ('idna.idnadata',
   '/home/felixq/PycharmProjects/Cephalon-6015/venv_python/lib/python3.8/site-packages/idna/idnadata.py',
   'PYMODULE'),
  ('idna.package_data',
   '/home/felixq/PycharmProjects/Cephalon-6015/venv_python/lib/python3.8/site-packages/idna/package_data.py',
   'PYMODULE'),
  ('urllib3.packages.six',
   '/home/felixq/PycharmProjects/Cephalon-6015/venv_python/lib/python3.8/site-packages/urllib3/packages/six.py',
   'PYMODULE'),
  ('urllib3.packages',
   '/home/felixq/PycharmProjects/Cephalon-6015/venv_python/lib/python3.8/site-packages/urllib3/packages/__init__.py',
   'PYMODULE'),
  ('urllib3.packages.ssl_match_hostname',
   '/home/felixq/PycharmProjects/Cephalon-6015/venv_python/lib/python3.8/site-packages/urllib3/packages/ssl_match_hostname/__init__.py',
   'PYMODULE'),
  ('urllib3.packages.ssl_match_hostname._implementation',
   '/home/felixq/PycharmProjects/Cephalon-6015/venv_python/lib/python3.8/site-packages/urllib3/packages/ssl_match_hostname/_implementation.py',
   'PYMODULE'),
  ('ipaddress', '/usr/lib/python3.8/ipaddress.py', 'PYMODULE'),
  ('urllib3.connectionpool',
   '/home/felixq/PycharmProjects/Cephalon-6015/venv_python/lib/python3.8/site-packages/urllib3/connectionpool.py',
   'PYMODULE'),
  ('urllib3.util.queue',
   '/home/felixq/PycharmProjects/Cephalon-6015/venv_python/lib/python3.8/site-packages/urllib3/util/queue.py',
   'PYMODULE'),
  ('urllib3.util.timeout',
   '/home/felixq/PycharmProjects/Cephalon-6015/venv_python/lib/python3.8/site-packages/urllib3/util/timeout.py',
   'PYMODULE'),
  ('urllib3.util.response',
   '/home/felixq/PycharmProjects/Cephalon-6015/venv_python/lib/python3.8/site-packages/urllib3/util/response.py',
   'PYMODULE'),
  ('urllib3.util.request',
   '/home/felixq/PycharmProjects/Cephalon-6015/venv_python/lib/python3.8/site-packages/urllib3/util/request.py',
   'PYMODULE'),
  ('urllib3.util.connection',
   '/home/felixq/PycharmProjects/Cephalon-6015/venv_python/lib/python3.8/site-packages/urllib3/util/connection.py',
   'PYMODULE'),
  ('urllib3.contrib._appengine_environ',
   '/home/felixq/PycharmProjects/Cephalon-6015/venv_python/lib/python3.8/site-packages/urllib3/contrib/_appengine_environ.py',
   'PYMODULE'),
  ('urllib3.util.wait',
   '/home/felixq/PycharmProjects/Cephalon-6015/venv_python/lib/python3.8/site-packages/urllib3/util/wait.py',
   'PYMODULE'),
  ('urllib3.request',
   '/home/felixq/PycharmProjects/Cephalon-6015/venv_python/lib/python3.8/site-packages/urllib3/request.py',
   'PYMODULE'),
  ('urllib3.filepost',
   '/home/felixq/PycharmProjects/Cephalon-6015/venv_python/lib/python3.8/site-packages/urllib3/filepost.py',
   'PYMODULE'),
  ('urllib3.fields',
   '/home/felixq/PycharmProjects/Cephalon-6015/venv_python/lib/python3.8/site-packages/urllib3/fields.py',
   'PYMODULE'),
  ('urllib3.connection',
   '/home/felixq/PycharmProjects/Cephalon-6015/venv_python/lib/python3.8/site-packages/urllib3/connection.py',
   'PYMODULE'),
  ('urllib3._collections',
   '/home/felixq/PycharmProjects/Cephalon-6015/venv_python/lib/python3.8/site-packages/urllib3/_collections.py',
   'PYMODULE'),
  ('urllib3.util.ssl_',
   '/home/felixq/PycharmProjects/Cephalon-6015/venv_python/lib/python3.8/site-packages/urllib3/util/ssl_.py',
   'PYMODULE'),
  ('urllib3.util.retry',
   '/home/felixq/PycharmProjects/Cephalon-6015/venv_python/lib/python3.8/site-packages/urllib3/util/retry.py',
   'PYMODULE'),
  ('urllib3.util',
   '/home/felixq/PycharmProjects/Cephalon-6015/venv_python/lib/python3.8/site-packages/urllib3/util/__init__.py',
   'PYMODULE'),
  ('urllib3.response',
   '/home/felixq/PycharmProjects/Cephalon-6015/venv_python/lib/python3.8/site-packages/urllib3/response.py',
   'PYMODULE'),
  ('urllib3.poolmanager',
   '/home/felixq/PycharmProjects/Cephalon-6015/venv_python/lib/python3.8/site-packages/urllib3/poolmanager.py',
   'PYMODULE'),
  ('requests._internal_utils',
   '/home/felixq/PycharmProjects/Cephalon-6015/venv_python/lib/python3.8/site-packages/requests/_internal_utils.py',
   'PYMODULE'),
  ('requests.hooks',
   '/home/felixq/PycharmProjects/Cephalon-6015/venv_python/lib/python3.8/site-packages/requests/hooks.py',
   'PYMODULE'),
  ('requests.cookies',
   '/home/felixq/PycharmProjects/Cephalon-6015/venv_python/lib/python3.8/site-packages/requests/cookies.py',
   'PYMODULE'),
  ('dummy_threading', '/usr/lib/python3.8/dummy_threading.py', 'PYMODULE'),
  ('_dummy_thread', '/usr/lib/python3.8/_dummy_thread.py', 'PYMODULE'),
  ('requests.auth',
   '/home/felixq/PycharmProjects/Cephalon-6015/venv_python/lib/python3.8/site-packages/requests/auth.py',
   'PYMODULE'),
  ('requests.models',
   '/home/felixq/PycharmProjects/Cephalon-6015/venv_python/lib/python3.8/site-packages/requests/models.py',
   'PYMODULE'),
  ('requests.packages',
   '/home/felixq/PycharmProjects/Cephalon-6015/venv_python/lib/python3.8/site-packages/requests/packages.py',
   'PYMODULE'),
  ('requests.utils',
   '/home/felixq/PycharmProjects/Cephalon-6015/venv_python/lib/python3.8/site-packages/requests/utils.py',
   'PYMODULE'),
  ('requests.certs',
   '/home/felixq/PycharmProjects/Cephalon-6015/venv_python/lib/python3.8/site-packages/requests/certs.py',
   'PYMODULE'),
  ('certifi',
   '/home/felixq/PycharmProjects/Cephalon-6015/venv_python/lib/python3.8/site-packages/certifi/__init__.py',
   'PYMODULE'),
  ('certifi.core',
   '/home/felixq/PycharmProjects/Cephalon-6015/venv_python/lib/python3.8/site-packages/certifi/core.py',
   'PYMODULE'),
  ('importlib.resources',
   '/usr/lib/python3.8/importlib/resources.py',
   'PYMODULE'),
  ('requests.__version__',
   '/home/felixq/PycharmProjects/Cephalon-6015/venv_python/lib/python3.8/site-packages/requests/__version__.py',
   'PYMODULE'),
  ('urllib3.exceptions',
   '/home/felixq/PycharmProjects/Cephalon-6015/venv_python/lib/python3.8/site-packages/urllib3/exceptions.py',
   'PYMODULE'),
  ('urllib3.contrib.pyopenssl',
   '/home/felixq/PycharmProjects/Cephalon-6015/venv_python/lib/python3.8/site-packages/urllib3/contrib/pyopenssl.py',
   'PYMODULE'),
  ('urllib3.packages.backports.makefile',
   '/home/felixq/PycharmProjects/Cephalon-6015/venv_python/lib/python3.8/site-packages/urllib3/packages/backports/makefile.py',
   'PYMODULE'),
  ('urllib3.packages.backports',
   '/home/felixq/PycharmProjects/Cephalon-6015/venv_python/lib/python3.8/site-packages/urllib3/packages/backports/__init__.py',
   'PYMODULE'),
  ('urllib3.contrib',
   '/home/felixq/PycharmProjects/Cephalon-6015/venv_python/lib/python3.8/site-packages/urllib3/contrib/__init__.py',
   'PYMODULE'),
  ('requests.exceptions',
   '/home/felixq/PycharmProjects/Cephalon-6015/venv_python/lib/python3.8/site-packages/requests/exceptions.py',
   'PYMODULE'),
  ('chardet',
   '/home/felixq/PycharmProjects/Cephalon-6015/venv_python/lib/python3.8/site-packages/chardet/__init__.py',
   'PYMODULE'),
  ('chardet.version',
   '/home/felixq/PycharmProjects/Cephalon-6015/venv_python/lib/python3.8/site-packages/chardet/version.py',
   'PYMODULE'),
  ('chardet.universaldetector',
   '/home/felixq/PycharmProjects/Cephalon-6015/venv_python/lib/python3.8/site-packages/chardet/universaldetector.py',
   'PYMODULE'),
  ('chardet.sbcsgroupprober',
   '/home/felixq/PycharmProjects/Cephalon-6015/venv_python/lib/python3.8/site-packages/chardet/sbcsgroupprober.py',
   'PYMODULE'),
  ('chardet.langturkishmodel',
   '/home/felixq/PycharmProjects/Cephalon-6015/venv_python/lib/python3.8/site-packages/chardet/langturkishmodel.py',
   'PYMODULE'),
  ('chardet.hebrewprober',
   '/home/felixq/PycharmProjects/Cephalon-6015/venv_python/lib/python3.8/site-packages/chardet/hebrewprober.py',
   'PYMODULE'),
  ('chardet.charsetprober',
   '/home/felixq/PycharmProjects/Cephalon-6015/venv_python/lib/python3.8/site-packages/chardet/charsetprober.py',
   'PYMODULE'),
  ('chardet.langhebrewmodel',
   '/home/felixq/PycharmProjects/Cephalon-6015/venv_python/lib/python3.8/site-packages/chardet/langhebrewmodel.py',
   'PYMODULE'),
  ('chardet.langthaimodel',
   '/home/felixq/PycharmProjects/Cephalon-6015/venv_python/lib/python3.8/site-packages/chardet/langthaimodel.py',
   'PYMODULE'),
  ('chardet.langbulgarianmodel',
   '/home/felixq/PycharmProjects/Cephalon-6015/venv_python/lib/python3.8/site-packages/chardet/langbulgarianmodel.py',
   'PYMODULE'),
  ('chardet.langgreekmodel',
   '/home/felixq/PycharmProjects/Cephalon-6015/venv_python/lib/python3.8/site-packages/chardet/langgreekmodel.py',
   'PYMODULE'),
  ('chardet.langcyrillicmodel',
   '/home/felixq/PycharmProjects/Cephalon-6015/venv_python/lib/python3.8/site-packages/chardet/langcyrillicmodel.py',
   'PYMODULE'),
  ('chardet.sbcharsetprober',
   '/home/felixq/PycharmProjects/Cephalon-6015/venv_python/lib/python3.8/site-packages/chardet/sbcharsetprober.py',
   'PYMODULE'),
  ('chardet.mbcsgroupprober',
   '/home/felixq/PycharmProjects/Cephalon-6015/venv_python/lib/python3.8/site-packages/chardet/mbcsgroupprober.py',
   'PYMODULE'),
  ('chardet.euctwprober',
   '/home/felixq/PycharmProjects/Cephalon-6015/venv_python/lib/python3.8/site-packages/chardet/euctwprober.py',
   'PYMODULE'),
  ('chardet.mbcssm',
   '/home/felixq/PycharmProjects/Cephalon-6015/venv_python/lib/python3.8/site-packages/chardet/mbcssm.py',
   'PYMODULE'),
  ('chardet.chardistribution',
   '/home/felixq/PycharmProjects/Cephalon-6015/venv_python/lib/python3.8/site-packages/chardet/chardistribution.py',
   'PYMODULE'),
  ('chardet.jisfreq',
   '/home/felixq/PycharmProjects/Cephalon-6015/venv_python/lib/python3.8/site-packages/chardet/jisfreq.py',
   'PYMODULE'),
  ('chardet.big5freq',
   '/home/felixq/PycharmProjects/Cephalon-6015/venv_python/lib/python3.8/site-packages/chardet/big5freq.py',
   'PYMODULE'),
  ('chardet.gb2312freq',
   '/home/felixq/PycharmProjects/Cephalon-6015/venv_python/lib/python3.8/site-packages/chardet/gb2312freq.py',
   'PYMODULE'),
  ('chardet.euckrfreq',
   '/home/felixq/PycharmProjects/Cephalon-6015/venv_python/lib/python3.8/site-packages/chardet/euckrfreq.py',
   'PYMODULE'),
  ('chardet.euctwfreq',
   '/home/felixq/PycharmProjects/Cephalon-6015/venv_python/lib/python3.8/site-packages/chardet/euctwfreq.py',
   'PYMODULE'),
  ('chardet.codingstatemachine',
   '/home/felixq/PycharmProjects/Cephalon-6015/venv_python/lib/python3.8/site-packages/chardet/codingstatemachine.py',
   'PYMODULE'),
  ('chardet.mbcharsetprober',
   '/home/felixq/PycharmProjects/Cephalon-6015/venv_python/lib/python3.8/site-packages/chardet/mbcharsetprober.py',
   'PYMODULE'),
  ('chardet.big5prober',
   '/home/felixq/PycharmProjects/Cephalon-6015/venv_python/lib/python3.8/site-packages/chardet/big5prober.py',
   'PYMODULE'),
  ('chardet.cp949prober',
   '/home/felixq/PycharmProjects/Cephalon-6015/venv_python/lib/python3.8/site-packages/chardet/cp949prober.py',
   'PYMODULE'),
  ('chardet.euckrprober',
   '/home/felixq/PycharmProjects/Cephalon-6015/venv_python/lib/python3.8/site-packages/chardet/euckrprober.py',
   'PYMODULE'),
  ('chardet.gb2312prober',
   '/home/felixq/PycharmProjects/Cephalon-6015/venv_python/lib/python3.8/site-packages/chardet/gb2312prober.py',
   'PYMODULE'),
  ('chardet.eucjpprober',
   '/home/felixq/PycharmProjects/Cephalon-6015/venv_python/lib/python3.8/site-packages/chardet/eucjpprober.py',
   'PYMODULE'),
  ('chardet.jpcntx',
   '/home/felixq/PycharmProjects/Cephalon-6015/venv_python/lib/python3.8/site-packages/chardet/jpcntx.py',
   'PYMODULE'),
  ('chardet.sjisprober',
   '/home/felixq/PycharmProjects/Cephalon-6015/venv_python/lib/python3.8/site-packages/chardet/sjisprober.py',
   'PYMODULE'),
  ('chardet.utf8prober',
   '/home/felixq/PycharmProjects/Cephalon-6015/venv_python/lib/python3.8/site-packages/chardet/utf8prober.py',
   'PYMODULE'),
  ('chardet.latin1prober',
   '/home/felixq/PycharmProjects/Cephalon-6015/venv_python/lib/python3.8/site-packages/chardet/latin1prober.py',
   'PYMODULE'),
  ('chardet.escprober',
   '/home/felixq/PycharmProjects/Cephalon-6015/venv_python/lib/python3.8/site-packages/chardet/escprober.py',
   'PYMODULE'),
  ('chardet.escsm',
   '/home/felixq/PycharmProjects/Cephalon-6015/venv_python/lib/python3.8/site-packages/chardet/escsm.py',
   'PYMODULE'),
  ('chardet.enums',
   '/home/felixq/PycharmProjects/Cephalon-6015/venv_python/lib/python3.8/site-packages/chardet/enums.py',
   'PYMODULE'),
  ('chardet.charsetgroupprober',
   '/home/felixq/PycharmProjects/Cephalon-6015/venv_python/lib/python3.8/site-packages/chardet/charsetgroupprober.py',
   'PYMODULE'),
  ('chardet.compat',
   '/home/felixq/PycharmProjects/Cephalon-6015/venv_python/lib/python3.8/site-packages/chardet/compat.py',
   'PYMODULE'),
  ('urllib3',
   '/home/felixq/PycharmProjects/Cephalon-6015/venv_python/lib/python3.8/site-packages/urllib3/__init__.py',
   'PYMODULE'),
  ('cache', '/home/felixq/PycharmProjects/Cephalon-6015/cache.py', 'PYMODULE'),
  ('gi',
   '/home/felixq/PycharmProjects/Cephalon-6015/venv_python/lib/python3.8/site-packages/gi/__init__.py',
   'PYMODULE'),
  ('threading', '/usr/lib/python3.8/threading.py', 'PYMODULE'),
  ('_threading_local', '/usr/lib/python3.8/_threading_local.py', 'PYMODULE')])
